id,TransactionNo,ApplicationDate,LeaveType,LeaveDetails,LeaveStatus,DevelopmentType,DegreePursued,Institution,Location,Country,SponsorDonor,LocalAbroad,StartDate,EndDate,Duration,ReportForDuty,ReturnServiceObligation,ReturnServiceObligationStatus,created_at,updated_at
20,0000013,2017-03-12,Doctoral Studies Fund,Full-Time,Reinstatement,Vocational,BS CS,UPD,QC,Andorra,,Local,2017-03-22,2018-03-25,2year/s-0month/s-0day/s,2017-03-25,2year/s-0month/s-0day/s,Unserved,2017-06-13 06:41:55 UTC,2017-06-13 06:41:55 UTC
21,0000014,2017-03-22,Study Leave without Pay,Full-Time,Reinstatement,Training Program,BS Computer Science,UPD,QC,United Arab Emirates,,Abroad,2017-03-25,2018-03-25,2year/s-0month/s-0day/s,2018-03-25,2year/s-0month/s-0day/s,Unserved,2017-06-13 06:41:55 UTC,2017-06-13 06:41:55 UTC
22,0000023,2017-04-25,Study Leave without Pay,Half-Day,Original,Training Program,BS Computer Science,UP Diliman,Quezon City,Philippines,,Local,2017-04-25,2018-04-25,1 year,2018-04-26,2year/s-0month/s-0day/s,Served,2017-06-13 06:41:56 UTC,2017-06-13 06:41:56 UTC
23,0000028,2017-04-25,Study Leave without Pay,Half-Day,Original,Training Program,BS Computer Science,UP Diliman,Quezon City,Philippines,,Local,2017-04-25,2018-04-25,1 year,2018-04-26,2year/s-0month/s-0day/s,Served,2017-06-13 06:41:56 UTC,2017-06-13 06:41:56 UTC
24,0000109,2017-03-12,Doctoral Studies Fund,Full-Time,Reinstatement,Vocational,BS CS,UPD,QC,United Arab Emirates,,Abroad,2017-03-22,2018-03-25,2year/s-0month/s-0day/s,2017-03-25,2year/s-0month/s-0day/s,Unserved,2017-06-13 06:41:56 UTC,2017-06-13 06:41:56 UTC
25,1000012,2017-04-25,Study Leave with Pay,Half-Day,Reinstatement,Diploma,BS CS`,UP,QC,United Arab Emirates,,Local,2017-04-25,2018-04-25,2 years,2019-04-25,2 years,Unserved,2017-06-13 06:41:56 UTC,2017-06-13 06:41:56 UTC
26,1000023,2017-03-21,Doctoral Studies Fund,Full-Time,Reinstatement,Diploma,CS,UPD,QC,United Arab Emirates,,Abroad,2017-03-21,2018-03-21,2years,2019-03-21,2years,Unserved,2017-06-13 06:41:56 UTC,2017-06-13 06:41:56 UTC
27,1230005,2017-03-23,Study Leave without Pay,Full-Time,Renewal,Training Program,BS CS,UP,QC,Anguilla,,Abroad,2017-03-23,2018-03-23,4year/s-2month/s-0day/s,2019-03-23,4year/s-2month/s-0day/s,Unserved,2017-06-13 06:41:56 UTC,2017-06-13 06:41:56 UTC
28,2000012,2017-05-01,Study Leave without Pay,Half-Day,Original,Training Program,BS CS,UPD,QC,Afghanistan,,Abroad,2017-05-01,2018-05-01,2year/s-0month/s-0day/s,2019-05-01,2year/s-0month/s-0day/s,Unserved,2017-06-13 06:41:56 UTC,2017-06-13 06:41:56 UTC
29,0000002,2015-04-15,Study Leave with Pay,Full-Time,Original,Master of Science,Industrial Engineering,Cambridge University,Cambridge,Albania,Chiz Ezcudero,Abroad,2016-08-02,2010-06-02,4year/s-2month/s-0day/s,2018-06-03,8year/s-4month/s-0day/s,Unserved,2017-06-13 06:42:31 UTC,2017-06-13 06:42:31 UTC
30,0000003,2017-09-22,Study Leave with Pay,Full-Time,Original,Master of Science,Mechanical Engineering,Cambridge University,Cambridge,Albania,Ping Lacson,Abroad,2018-08-02,2022-06-02,4year/s-2month/s-0day/s,2018-06-03,8year/s-4month/s-0day/s,Unserved,2017-06-13 06:42:31 UTC,2017-06-13 06:42:31 UTC
31,0000004,2017-01-23,Study Leave without Pay,Full-Time,Reinstatement,Training Program,BS CS,UPD,QC,Philippines,,Local,2017-03-23,2018-01-23,2years-0months-0days,2018-02-23,2years-0months-0days,Served,2017-06-13 06:42:32 UTC,2017-06-13 06:42:32 UTC
32,0000007,2017-04-25,Study Leave without Pay,Half-Day,Original,Training Program,BS Computer Science,UP Diliman,Quezon City,Philippines,,Local,2017-04-25,2018-04-25,1 year,2018-04-26,2year/s-0month/s-0day/s,Served,2017-06-13 06:42:32 UTC,2017-06-13 06:42:32 UTC
33,0000012,2017-03-12,Doctoral Studies Fund,Full-Time,Reinstatement,Vocational,BS CS,UPD,QC,Andorra,,Local,2017-03-22,2018-03-25,2year/s-0month/s-0day/s,2017-03-25,2year/s-0month/s-0day/s,Unserved,2017-06-13 06:42:32 UTC,2017-06-13 06:42:32 UTC
34,0000013,2017-03-12,Doctoral Studies Fund,Full-Time,Reinstatement,Vocational,BS CS,UPD,QC,Andorra,,Local,2017-03-22,2018-03-25,2year/s-0month/s-0day/s,2017-03-25,2year/s-0month/s-0day/s,Unserved,2017-06-13 06:42:32 UTC,2017-06-13 06:42:32 UTC
35,0000014,2017-03-22,Study Leave without Pay,Full-Time,Reinstatement,Training Program,BS Computer Science,UPD,QC,United Arab Emirates,,Abroad,2017-03-25,2018-03-25,2year/s-0month/s-0day/s,2018-03-25,2year/s-0month/s-0day/s,Unserved,2017-06-13 06:42:32 UTC,2017-06-13 06:42:32 UTC
36,0000023,2017-04-25,Study Leave without Pay,Half-Day,Original,Training Program,BS Computer Science,UP Diliman,Quezon City,Philippines,,Local,2017-04-25,2018-04-25,1 year,2018-04-26,2year/s-0month/s-0day/s,Served,2017-06-13 06:42:32 UTC,2017-06-13 06:42:32 UTC
37,0000028,2017-04-25,Study Leave without Pay,Half-Day,Original,Training Program,BS Computer Science,UP Diliman,Quezon City,Philippines,,Local,2017-04-25,2018-04-25,1 year,2018-04-26,2year/s-0month/s-0day/s,Served,2017-06-13 06:42:32 UTC,2017-06-13 06:42:32 UTC
38,0000109,2017-03-12,Doctoral Studies Fund,Full-Time,Reinstatement,Vocational,BS CS,UPD,QC,United Arab Emirates,,Abroad,2017-03-22,2018-03-25,2year/s-0month/s-0day/s,2017-03-25,2year/s-0month/s-0day/s,Unserved,2017-06-13 06:42:33 UTC,2017-06-13 06:42:33 UTC
39,1000012,2017-04-25,Study Leave with Pay,Half-Day,Reinstatement,Diploma,BS CS`,UP,QC,United Arab Emirates,,Local,2017-04-25,2018-04-25,2 years,2019-04-25,2 years,Unserved,2017-06-13 06:42:33 UTC,2017-06-13 06:42:33 UTC
40,1000023,2017-03-21,Doctoral Studies Fund,Full-Time,Reinstatement,Diploma,CS,UPD,QC,United Arab Emirates,,Abroad,2017-03-21,2018-03-21,2years,2019-03-21,2years,Unserved,2017-06-13 06:42:33 UTC,2017-06-13 06:42:33 UTC
41,1230005,2017-03-23,Study Leave without Pay,Full-Time,Renewal,Training Program,BS CS,UP,QC,Anguilla,,Abroad,2017-03-23,2018-03-23,4year/s-2month/s-0day/s,2019-03-23,4year/s-2month/s-0day/s,Unserved,2017-06-13 06:42:33 UTC,2017-06-13 06:42:33 UTC
43,0000002,2015-04-15,Study Leave with Pay,Full-Time,Original,Master of Science,Industrial Engineering,Cambridge University,Cambridge,Albania,Chiz Ezcudero,Abroad,2016-08-02,2010-06-02,4year/s-2month/s-0day/s,2018-06-03,8year/s-4month/s-0day/s,Unserved,2017-06-13 07:08:03 UTC,2017-06-13 07:08:03 UTC
44,0000003,2017-09-22,Study Leave with Pay,Full-Time,Original,Master of Science,Mechanical Engineering,Cambridge University,Cambridge,Albania,Ping Lacson,Abroad,2018-08-02,2022-06-02,4year/s-2month/s-0day/s,2018-06-03,8year/s-4month/s-0day/s,Unserved,2017-06-13 07:08:03 UTC,2017-06-13 07:08:03 UTC
45,0000004,2017-01-23,Study Leave without Pay,Full-Time,Reinstatement,Training Program,BS CS,UPD,QC,Philippines,,Local,2017-03-23,2018-01-23,2years-0months-0days,2018-02-23,2years-0months-0days,Served,2017-06-13 07:08:03 UTC,2017-06-13 07:08:03 UTC
46,0000007,2017-04-25,Study Leave without Pay,Half-Day,Original,Training Program,BS Computer Science,UP Diliman,Quezon City,Philippines,,Local,2017-04-25,2018-04-25,1 year,2018-04-26,2year/s-0month/s-0day/s,Served,2017-06-13 07:08:03 UTC,2017-06-13 07:08:03 UTC
47,0000012,2017-03-12,Doctoral Studies Fund,Full-Time,Reinstatement,Vocational,BS CS,UPD,QC,Andorra,,Local,2017-03-22,2018-03-25,2year/s-0month/s-0day/s,2017-03-25,2year/s-0month/s-0day/s,Unserved,2017-06-13 07:08:03 UTC,2017-06-13 07:08:03 UTC
48,0000013,2017-03-12,Doctoral Studies Fund,Full-Time,Reinstatement,Vocational,BS CS,UPD,QC,Andorra,,Local,2017-03-22,2018-03-25,2year/s-0month/s-0day/s,2017-03-25,2year/s-0month/s-0day/s,Unserved,2017-06-13 07:08:04 UTC,2017-06-13 07:08:04 UTC
49,0000014,2017-03-22,Study Leave without Pay,Full-Time,Reinstatement,Training Program,BS Computer Science,UPD,QC,United Arab Emirates,,Abroad,2017-03-25,2018-03-25,2year/s-0month/s-0day/s,2018-03-25,2year/s-0month/s-0day/s,Unserved,2017-06-13 07:08:04 UTC,2017-06-13 07:08:04 UTC
50,0000023,2017-04-25,Study Leave without Pay,Half-Day,Original,Training Program,BS Computer Science,UP Diliman,Quezon City,Philippines,,Local,2017-04-25,2018-04-25,1 year,2018-04-26,2year/s-0month/s-0day/s,Served,2017-06-13 07:08:04 UTC,2017-06-13 07:08:04 UTC
51,0000028,2017-04-25,Study Leave without Pay,Half-Day,Original,Training Program,BS Computer Science,UP Diliman,Quezon City,Philippines,,Local,2017-04-25,2018-04-25,1 year,2018-04-26,2year/s-0month/s-0day/s,Served,2017-06-13 07:08:04 UTC,2017-06-13 07:08:04 UTC
52,0000109,2017-03-12,Doctoral Studies Fund,Full-Time,Reinstatement,Vocational,BS CS,UPD,QC,United Arab Emirates,,Abroad,2017-03-22,2018-03-25,2year/s-0month/s-0day/s,2017-03-25,2year/s-0month/s-0day/s,Unserved,2017-06-13 07:08:04 UTC,2017-06-13 07:08:04 UTC
53,1000012,2017-04-25,Study Leave with Pay,Half-Day,Reinstatement,Diploma,BS CS`,UP,QC,United Arab Emirates,,Local,2017-04-25,2018-04-25,2 years,2019-04-25,2 years,Unserved,2017-06-13 07:08:04 UTC,2017-06-13 07:08:04 UTC
54,1000023,2017-03-21,Doctoral Studies Fund,Full-Time,Reinstatement,Diploma,CS,UPD,QC,United Arab Emirates,,Abroad,2017-03-21,2018-03-21,2years,2019-03-21,2years,Unserved,2017-06-13 07:08:05 UTC,2017-06-13 07:08:05 UTC
55,1230005,2017-03-23,Study Leave without Pay,Full-Time,Renewal,Training Program,BS CS,UP,QC,Anguilla,,Abroad,2017-03-23,2018-03-23,4year/s-2month/s-0day/s,2019-03-23,4year/s-2month/s-0day/s,Unserved,2017-06-13 07:08:05 UTC,2017-06-13 07:08:05 UTC
56,2000012,2017-05-01,Study Leave without Pay,Half-Day,Original,Training Program,BS CS,UPD,QC,Afghanistan,,Abroad,2017-05-01,2018-05-01,2year/s-0month/s-0day/s,2019-05-01,2year/s-0month/s-0day/s,Unserved,2017-06-13 07:08:05 UTC,2017-06-13 07:08:05 UTC
